0.000000
-0.000000
-0.000000
-0.000000
-0.000000
0.000000
-0.000000
-0.000000
-0.000000
0.000000
-0.000000
-0.000000
0.000000
0.000000
0.000000
0.000000
0.000000
0.000000
-0.000000
-0.000000
0.000000
0.000000
0.000000
0.000000
0.000000
0.000000
-0.000000
-0.000000
0.000000
-0.000000
0.000000
-0.000000
0.000000
-0.000000
0.000000
-0.000000
0.000000
-0.000000
0.000000
0.000000
-0.000000
-0.000000
0.000000
-0.000000
-0.000000
-0.000000
-0.000000
0.000000
-0.000000
-0.000000
0.000000
0.000000
0.000000
0.000000
-0.000000
0.000000
-0.000000
-0.000000
0.000000
0.000000
-0.000000
-0.000000
0.000000
-0.000000
0.000000
0.000000
-0.000000
-0.000000
-0.000000
-0.000000
0.000000
-0.000000
0.000000
-0.000000
-0.000000
0.000000
-0.000000
-0.000000
-0.000000
0.000000
0.000000
0.000000
0.000000
-0.000000
-0.000000
-0.000000
-0.000000
-0.000000
-0.000000
-0.000000
0.000000
0.000000
-0.000000
0.000000
0.000000
-0.000000
-0.000000
-0.000000
0.000000
-0.000000
0.000000
-0.000000
0.000000
-0.000000
0.000000
0.000000
-0.000000
-0.000000
-0.000000
-0.000000
0.000000
-0.000000
0.000000
0.000000
-0.000000
-0.000000
0.000000
-0.000000
-0.000000
0.000000
-0.000000
-0.000000
-0.000000
-0.000000
0.000000
-0.000000
-0.000000
-0.000000
0.000000
-0.000000
0.000000
-0.000000
0.000000
0.000000
0.000000
-0.000000
-0.000000
0.000000
0.000000
0.000000
-0.000000
-0.000000
0.000000
0.000000
-0.000000
0.000000
-0.000000
-0.000000
0.000000
-0.000000
-0.000000
0.000000
0.000000
0.000000
-0.000000
0.000000
-0.000000
0.000000
0.000000
0.000000
0.000000
0.000000
0.000000
0.000000
0.000000
0.000000
-0.000000
0.000000
-0.000000
0.000000
-0.000000
0.000000
0.000000
-0.000000
-0.000000
0.000000
0.000000
0.000000
0.000000
-0.000000
0.000000
-0.000000
-0.000000
-0.000000
0.000000
0.000000
-0.000000
0.000000
-0.000000
0.000000
0.000000
-0.000000
-0.000000
0.000000
0.000000
-0.000000
-0.000000
-0.000000
-0.000000
0.000000
-0.000000
0.000000
-0.000000
0.000000
-0.000000
0.000000
0.000000
0.000000
0.000000
0.000000
-0.000000
-0.000000
0.000000
0.000000
-0.000000
-0.000000
-0.000000
0.000000
0.000000
0.000000
0.000000
0.000000
0.000000
0.000000
0.000000
-0.000000
-0.000000
-0.000000
0.000000
-0.000000
0.000000
-0.000000
-0.000000
0.000000
0.000000
-0.000000
0.000000
0.000000
-0.000000
0.000000
-0.000000
-0.000000
0.000000
-0.000000
0.000000
0.000000
0.000000
0.000000
0.000000
-0.000000
-0.000000
0.000000
0.000000
-0.000000
0.000000
-0.000000
0.000000
-0.000000
0.000000
0.000000
0.000000
0.000000
-0.000000
0.000000
0.000000
0.000000
-0.000000
-0.000000
0.000000
0.000000
-0.000000
0.000000
0.000000
0.000000
0.000000
-0.000000
-0.000000
-0.000000
-0.000000
-0.000000
0.000000
0.000000
0.000000
-0.000000
-0.000000
-0.000000
0.000000
-0.000000
0.000000
0.000000
-0.000000
0.000000
0.000000
0.000000
-0.000000
-0.000000
0.000000
0.000000
-0.000000
-0.000000
-0.000000
-0.000000
0.000000
0.000000
0.000000
-0.000000
-0.000000
0.000000
-0.000000
0.000000
0.000000
0.000000
-0.000000
-0.000000
-0.000000
0.000000
-0.000000
-0.000000
-0.000000
0.000000
-0.000000
-0.000000
0.000000
0.000000
-0.000000
0.000000
0.000000
0.000000
0.000000
0.000000
-0.000000
-0.000000
-0.000000
-0.000000
0.000000
0.000000
-0.000000
-0.000000
-0.000000
0.000000
0.000000
0.000000
0.000000
0.000000
-0.000000
-0.000000
-0.000000
0.000000
-0.000000
-0.000000
-0.000000
-0.000000
-0.000000
-0.000000
-0.000000
-0.000000
0.000000
0.000000
0.000000
-0.000000
-0.000000
-0.000000
-0.000000
0.000000
0.000000
0.000000
0.000000
0.000000
0.000000
-0.000000
-0.000000
0.000000
-0.000000
-0.000000
0.000000
0.000000
0.000000
0.000000
0.000000
-0.000000
-0.000000
-0.000000
0.000000
0.000000
-0.000000
0.000000
-0.000000
0.000000
0.000000
0.000000
-0.000000
0.000000
-0.000000
-0.000000
-0.000000
0.000000
-0.000000
-0.000000
0.000000
0.000000
0.000000
0.000000
0.000000
0.000000
0.000000
0.000000
-0.000000
0.000000
-0.000000
0.000000
0.000000
-0.000000
-0.000000
-0.000000
-0.000000
0.000000
0.000000
0.000000
0.000000
-0.000000
0.000000
-0.000000
0.000000
-0.000000
0.000000
0.000000
-0.000000
-0.000000
0.000000
-0.000000
0.000000
0.000000
0.000000
0.000000
-0.000000
-0.000000
-0.000000
-0.000000
-0.000000
0.000000
0.000001
-0.000000
0.000001
0.000000
-0.000000
-0.000000
0.000000
0.000000
0.000001
0.000000
-0.000000
0.000000
0.000000
-0.000000
-0.000000
-0.000001
0.000000
0.000001
0.000001
0.000001
-0.000000
0.000001
-0.000000
-0.000000
0.000000
0.000000
-0.000000
0.000000
0.000000
0.000000
0.000000
-0.000000
0.000000
0.000000
0.000000
0.000000
0.000000
0.000000
-0.000000
-0.000000
0.000000
-0.000000
-0.000000
-0.000000
-0.000000
-0.000000
0.000000
-0.000000
0.000000
-0.000000
0.000000
0.000000
0.000000
0.000000
-0.000000
-0.000000
0.000000
-0.000000
-0.000001
-0.000001
0.000001
-0.000001
0.000001
-0.000000
0.000000
0.000000
-0.000001
-0.000001
-0.000000
0.000001
0.000001
0.000002
0.000001
0.000000
-0.000001
0.000001
-0.000000
0.000001
0.000000
0.000001
0.000001
-0.000001
0.000001
-0.000001
-0.000001
0.000001
0.000001
-0.000001
-0.000001
0.000001
0.000001
0.000001
0.000001
-0.000001
-0.000000
-0.000001
-0.000002
0.000000
0.000002
-0.000001
0.000001
0.000000
-0.000001
-0.000000
0.000000
0.000000
-0.000000
-0.000000
-0.000000
0.000000
0.000000
0.000000
0.000000
-0.000000
0.000000
-0.000000
0.000000
0.000000
0.000000
0.000000
-0.000000
0.000000
0.000000
-0.000000
0.000000
0.000001
-0.000001
-0.000000
-0.000001
0.000001
0.000001
0.000000
0.000000
0.000001
-0.000001
-0.000002
0.000003
-0.000000
0.000001
-0.000001
-0.000001
0.000003
-0.000003
-0.000003
0.000003
0.000003
-0.000001
-0.000008
0.000001
-0.000001
0.000001
-0.000000
0.000006
0.000000
0.000003
-0.000001
0.000004
0.000004
-0.000003
0.000002
0.000001
0.000003
-0.000004
-0.000003
-0.000004
0.000001
0.000003
-0.000002
0.000002
-0.000003
0.000003
0.000000
0.000004
-0.000001
-0.000000
-0.000001
0.000000
0.000000
0.000002
-0.000000
0.000001
-0.000001
-0.000000
-0.000000
0.000000
-0.000000
0.000000
-0.000000
0.000000
0.000000
-0.000001
-0.000000
0.000001
-0.000000
-0.000000
-0.000002
0.000002
-0.000002
0.000003
0.000001
-0.000003
0.000002
0.000002
0.000001
-0.000000
-0.000003
-0.000007
-0.000003
-0.000002
0.000004
-0.000008
-0.000009
0.000015
0.000002
-0.000015
0.000011
0.000006
-0.000011
0.000006
-0.000001
-0.000008
0.000009
-0.000004
-0.000003
-0.000005
-0.000013
0.000007
-0.000013
-0.000005
0.000004
-0.000012
-0.000003
0.000005
-0.000000
-0.000015
0.000014
0.000006
0.000013
0.000007
0.000011
0.000004
-0.000005
-0.000002
0.000006
-0.000006
0.000006
-0.000007
0.000006
-0.000002
-0.000001
0.000003
-0.000001
-0.000003
0.000001
-0.000002
-0.000000
-0.000001
-0.000000
0.000001
0.000000
0.000001
0.000001
-0.000001
0.000001
0.000001
-0.000003
0.000001
-0.000004
-0.000005
0.000007
0.000003
-0.000002
-0.000013
-0.000009
-0.000007
0.000014
0.000001
-0.000014
-0.000026
0.000029
0.000020
-0.000013
-0.000025
0.000001
0.000006
0.000008
0.000019
0.000010
0.000023
-0.000003
0.000002
-0.000040
-0.000022
0.000009
-0.000048
0.000017
-0.000033
0.000036
-0.000032
0.000044
-0.000040
0.000022
0.000034
-0.000005
0.000037
-0.000029
-0.000008
0.000003
-0.000018
-0.000019
0.000018
0.000028
0.000019
0.000008
-0.000018
-0.000027
0.000011
0.000000
0.000005
0.000013
0.000007
0.000010
0.000001
0.000004
0.000000
0.000002
-0.000004
-0.000002
-0.000003
0.000003
0.000003
0.000003
0.000002
0.000005
0.000005
0.000006
0.000005
-0.000001
0.000013
0.000002
0.000001
-0.000010
0.000003
0.000023
-0.000023
0.000009
-0.000006
0.000036
0.000026
-0.000023
0.000009
0.000019
-0.000007
-0.000047
-0.000016
-0.000050
0.000068
-0.000014
-0.000039
-0.000033
0.000072
0.000081
0.000117
0.000107
0.000078
-0.000012
0.000008
-0.000032
-0.000117
0.000023
-0.000010
-0.000065
-0.000049
0.000041
-0.000099
-0.000071
0.000028
0.000078
0.000095
0.000084
0.000046
-0.000101
0.000063
0.000011
-0.000042
-0.000052
0.000060
0.000044
0.000021
-0.000011
0.000013
0.000012
-0.000004
-0.000023
0.000006
0.000011
-0.000011
-0.000010
0.000010
0.000001
-0.000000
0.000003
0.000007
-0.000009
0.000003
-0.000000
0.000002
-0.000012
-0.000012
-0.000029
-0.000045
-0.000037
0.000007
-0.000054
0.000049
0.000084
-0.000009
0.000077
0.000097
-0.000103
0.000116
-0.000025
-0.000091
0.000193
-0.000127
-0.000179
0.000064
-0.000197
0.000029
-0.000196
-0.000235
-0.000003
-0.000039
-0.000172
0.000148
0.000165
0.000025
-0.000155
-0.000083
-0.000086
-0.000111
0.000475
0.000204
0.000042
-0.000088
-0.000240
0.000194
0.000158
-0.000132
0.000152
0.000117
-0.000078
-0.000120
-0.000225
-0.000100
-0.000064
0.000125
-0.000064
0.000171
0.000087
-0.000095
0.000075
-0.000098
0.000096
-0.000069
-0.000042
-0.000009
0.000046
-0.000044
-0.000017
-0.000004
-0.000019
-0.000013
-0.000023
0.000002
-0.000012
-0.000012
0.000041
-0.000017
-0.000019
0.000100
-0.000015
0.000009
0.000098
-0.000081
-0.000108
0.000200
-0.000237
-0.000143
0.000145
0.000274
0.000119
-0.000442
-0.000397
0.000312
-0.000285
0.000338
-0.000338
0.000361
-0.000009
-0.000176
-0.000694
-0.000818
-0.000750
0.000106
-0.000318
0.000752
-0.000304
-0.000947
0.000472
-0.000881
0.000612
-0.000475
-0.000832
-0.000022
-0.000833
-0.000667
0.000350
-0.000331
0.000795
0.000451
-0.000798
0.000270
0.000382
-0.000023
-0.000405
0.000106
0.000073
0.000188
0.000356
0.000462
0.000247
-0.000347
0.000051
-0.000013
0.000104
0.000207
-0.000205
-0.000018
0.000121
0.000049
0.000084
-0.000038
-0.000029
-0.000003
-0.000023
0.000027
-0.000061
-0.000056
-0.000062
0.000241
0.000170
0.000204
-0.000202
0.000300
0.000396
0.000023
0.000272
0.000438
-0.000861
-0.000485
0.000876
-0.000907
