#Introduiu el grau del polinomi interpolador:#En quin interval voleu interpolar?-5.000000e+00 3.846154e-02
-3.000000e+00 1.000000e-01
-1.000000e+00 5.000000e-01
1.000000e+00 5.000000e-01
3.000000e+00 1.000000e-01
5.000000e+00 3.846154e-02


-5.000000e+00 -nan
-3.000000e+00 -nan
-1.000000e+00 -nan
1.000000e+00 -nan
3.000000e+00 -nan
5.000000e+00 -nan
